<svg xmlns="http://www.w3.org/2000/svg" width="27.115" height="91.958" viewBox="0 0 27.115 91.958">
  <path id="Subtraction_11" data-name="Subtraction 11" d="M-1862-5269.042h0a22.853,22.853,0,0,0-1.807-8.911,22.926,22.926,0,0,0-4.929-7.311,22.922,22.922,0,0,0-7.311-4.929A22.855,22.855,0,0,0-1885-5292h-2v-46h2a22.855,22.855,0,0,0,8.953-1.808,22.922,22.922,0,0,0,7.311-4.929,22.926,22.926,0,0,0,4.929-7.311A22.859,22.859,0,0,0-1862-5361l2.115,46.814Z" transform="translate(1887 5361)" fill="#fff"/>
</svg>
