<svg xmlns="http://www.w3.org/2000/svg" width="92.892" height="86.778" viewBox="0 0 92.892 86.778">
  <g id="Group_378" data-name="Group 378" transform="translate(241.211 79.014) rotate(140)">
    <path id="Path_2255" data-name="Path 2255" d="M166.456,153.792c-.233-.2-.442-.439-.714-.709a10.6,10.6,0,0,0-2.274-18.356l-.189-.076c-.062-.026-.125-.052-.188-.076s-.124-.053-.188-.076-.125-.052-.189-.076l-.186-.076c-.063-.026-.125-.052-.189-.075s-.122-.052-.184-.075l-.193-.079c-.062-.026-.124-.051-.187-.075l-.189-.077-.188-.076-.186-.075-.186-.075-.194-.079c-.061-.025-.122-.05-.183-.073s-.126-.052-.19-.077l-.19-.077c-.062-.026-.124-.051-.186-.074s-.125-.053-.188-.077a9.162,9.162,0,0,0-2.855-.668c-5.394-.357-9.839,2.374-11.444,7.238a1.9,1.9,0,0,1-2.2,1.576c-17.1-.039-19.743-.024-36.355-.019-1.324-3.023-3.2-5.284-5.888-6.438-.061-.028-.126-.049-.188-.077s-.127-.049-.189-.077-.125-.049-.186-.075-.128-.05-.191-.078-.126-.049-.188-.076-.125-.047-.186-.074-.127-.049-.189-.076-.128-.05-.19-.077-.125-.049-.186-.075-.127-.05-.189-.076-.126-.051-.187-.077-.127-.05-.19-.076-.125-.049-.186-.075-.127-.05-.189-.077-.126-.049-.188-.076-.126-.05-.187-.075-.127-.049-.189-.077-.127-.05-.189-.076-.124-.048-.185-.075a10.56,10.56,0,0,0-3.382-.88c-5.007-.485-9.07,1.733-10.849,6.027-2.136,5.161-.7,9.507,3.436,12.986-3.968,3.169-5.392,7.253-3.754,12.079a9.561,9.561,0,0,0,5.5,6.094c.062.027.126.052.189.077s.125.049.188.074.125.052.188.076.124.051.186.076.128.051.192.077.124.05.185.075.127.051.19.077.125.05.188.075.126.051.189.077.124.051.187.076.126.051.189.077.125.05.187.075.125.051.187.075.126.051.188.076.125.051.188.076.126.052.189.076.126.051.189.077.125.05.188.075.125.051.188.075a11.318,11.318,0,0,0,3.755.875c5.989.406,9.667-2.941,11.67-8.592a1.318,1.318,0,0,1,.229-.065c17.537-.013,21.458-.03,37.754,0a11.633,11.633,0,0,0,6.548,6.56c.063.026.125.052.188.075s.124.053.189.076l.187.076c.063.025.125.052.188.076s.124.052.186.076.127.052.191.077.123.051.185.074.125.052.188.077.127.053.192.076.123.052.184.075.126.053.19.077.124.052.187.075.125.052.189.076.124.052.187.076.126.052.189.077.125.052.188.075l.186.076c.064.026.126.053.189.075s.125.052.189.077a10.4,10.4,0,0,0,7.671.059,9.885,9.885,0,0,0,6.593-7.9A10.136,10.136,0,0,0,166.456,153.792Z" fill="#f3732b" fill-rule="evenodd"/>
    <g id="Group_371" data-name="Group 371" transform="translate(86.316 134.178)">
      <path id="Path_2256" data-name="Path 2256" d="M112.389,144.847h2.3c17.388,0,19.828-.02,37.216.019a1.9,1.9,0,0,0,2.2-1.576c1.606-4.863,6.05-7.595,11.444-7.238a10.153,10.153,0,0,1,8.989,8A10.391,10.391,0,0,1,170.482,155c.273.272.482.506.715.71a10.136,10.136,0,0,1,3.443,9.863,9.885,9.885,0,0,1-6.594,7.9c-5.818,2.222-12.086-.992-14.254-7.126a1.59,1.59,0,0,0-1.116-.933c-18.374-.034-21.8-.016-40.175,0a1.264,1.264,0,0,0-.23.065c-2,5.652-5.68,9-11.671,8.592a9.681,9.681,0,0,1-9.063-6.892c-1.638-4.826-.214-8.91,3.754-12.078-4.134-3.481-5.572-7.827-3.436-12.986,1.778-4.3,5.842-6.514,10.848-6.028S110.639,139.9,112.389,144.847Z" transform="translate(-90.87 -136.02)" fill="#fd8e00" fill-rule="evenodd"/>
    </g>
    <path id="Path_2257" data-name="Path 2257" d="M175.207,169.077a6.445,6.445,0,0,0-2.262-6.449c-.265-.231-.479-.453-.669-.649-.068-.071-.139-.143-.215-.219a3.7,3.7,0,0,1-1.06-2.814,3.651,3.651,0,0,1,1.347-2.675c2.587-2.062,3.418-4.244,2.777-7.3a6.782,6.782,0,0,0-5.9-5.19c-.241-.016-.485-.024-.722-.024-3.577,0-6.312,1.818-7.318,4.863-1.315,3.982-4.372,3.982-5.376,3.982-9.575-.022-14.471-.026-19.266-.026l-20.261.006a3.413,3.413,0,0,1-3.169-2.33c-1.464-4.143-3.569-6.129-6.825-6.445-.35-.034-.7-.051-1.032-.051-3.08,0-5.355,1.4-6.409,3.945-1.436,3.468-.706,6.077,2.441,8.727a3.73,3.73,0,0,1-.069,5.685c-2.893,2.311-3.7,4.775-2.6,7.991a6.285,6.285,0,0,0,6.1,4.525c4.041.272,6.665-1.7,8.287-6.272a3.484,3.484,0,0,1,2.25-2.194l.041-.013a3.425,3.425,0,0,1,1.106-.187l10.075-.008c4.774-.005,8.455-.008,12.418-.008,4.722,0,9.844,0,17.688.02a4.895,4.895,0,0,1,4.279,3.262,7.849,7.849,0,0,0,7.314,5.5,7.335,7.335,0,0,0,2.625-.492A6.39,6.39,0,0,0,175.207,169.077Z" transform="translate(-8.451 -5.985)" fill="#ffbc00" fill-rule="evenodd"/>
    <g id="Group_372" data-name="Group 372" transform="translate(89.699 144.056)">
      <path id="Path_2258" data-name="Path 2258" d="M256.358,162.021a3.649,3.649,0,0,0-1.347,2.675,3.762,3.762,0,0,0,.074.947,3.608,3.608,0,0,1,1.273-2.125c2.275-1.812,3.191-3.72,2.943-6.229A6.907,6.907,0,0,1,256.358,162.021Z" transform="translate(-182.159 -157.289)" fill="#ffe0ae" fill-rule="evenodd"/>
      <path id="Path_2259" data-name="Path 2259" d="M101.3,163.707a3.658,3.658,0,0,1,1.2,2.056,3.689,3.689,0,0,0-1.2-3.552c-1.867-1.571-2.877-3.131-3.094-4.863C97.914,159.706,98.907,161.7,101.3,163.707Z" transform="translate(-98.153 -157.321)" fill="#ffe0ae" fill-rule="evenodd"/>
      <path id="Path_2260" data-name="Path 2260" d="M175.213,191.444a6.39,6.39,0,0,1-4.41,5.162,7.325,7.325,0,0,1-2.625.493,7.85,7.85,0,0,1-7.314-5.5,4.9,4.9,0,0,0-4.279-3.262c-7.844-.015-12.966-.019-17.688-.019-3.963,0-7.644,0-12.418.007l-10.075.009a3.412,3.412,0,0,0-1.106.187l-.041.013a3.479,3.479,0,0,0-2.25,2.193c-1.622,4.576-4.246,6.545-8.287,6.272a6.285,6.285,0,0,1-6.1-4.524,8.761,8.761,0,0,1-.42-1.817,7.363,7.363,0,0,0,.42,3.314,6.285,6.285,0,0,0,6.1,4.525c4.041.272,6.665-1.7,8.287-6.272a3.484,3.484,0,0,1,2.25-2.194l.041-.013a3.426,3.426,0,0,1,1.106-.187l10.075-.008c4.774-.005,8.455-.008,12.418-.008,4.722,0,9.844,0,17.688.02a4.895,4.895,0,0,1,4.279,3.262,7.849,7.849,0,0,0,7.314,5.5,7.334,7.334,0,0,0,2.625-.492,6.39,6.39,0,0,0,4.41-5.161,8.006,8.006,0,0,0,.091-2.194C175.282,190.976,175.254,191.206,175.213,191.444Z" transform="translate(-98.156 -173.906)" fill="#ffe0ae" fill-rule="evenodd"/>
    </g>
    <g id="Group_377" data-name="Group 377" transform="translate(107.5 148.926)">
      <g id="Group_373" data-name="Group 373" transform="translate(0)">
        <path id="Path_2261" data-name="Path 2261" d="M142.869,171.165a3.2,3.2,0,1,1-3.193-3.39A3.3,3.3,0,0,1,142.869,171.165Z" transform="translate(-136.482 -167.775)" fill="#ffd78f" fill-rule="evenodd"/>
        <path id="Path_2262" data-name="Path 2262" d="M143.4,172.684A3.2,3.2,0,1,1,140.2,169.3,3.3,3.3,0,0,1,143.4,172.684Z" transform="translate(-136.765 -168.589)" fill="#faeabb" fill-rule="evenodd"/>
      </g>
      <g id="Group_374" data-name="Group 374" transform="translate(11.326)">
        <path id="Path_2263" data-name="Path 2263" d="M167.256,171.165a3.2,3.2,0,1,1-3.193-3.39A3.3,3.3,0,0,1,167.256,171.165Z" transform="translate(-160.869 -167.775)" fill="#ffd78f" fill-rule="evenodd"/>
        <path id="Path_2264" data-name="Path 2264" d="M167.784,172.684a3.2,3.2,0,1,1-3.193-3.389A3.3,3.3,0,0,1,167.784,172.684Z" transform="translate(-161.152 -168.589)" fill="#faeabb" fill-rule="evenodd"/>
      </g>
      <g id="Group_375" data-name="Group 375" transform="translate(22.652)">
        <path id="Path_2265" data-name="Path 2265" d="M191.643,171.165a3.2,3.2,0,1,1-3.193-3.39A3.3,3.3,0,0,1,191.643,171.165Z" transform="translate(-185.256 -167.775)" fill="#ffd78f" fill-rule="evenodd"/>
        <path id="Path_2266" data-name="Path 2266" d="M192.172,172.684a3.2,3.2,0,1,1-3.193-3.389A3.3,3.3,0,0,1,192.172,172.684Z" transform="translate(-185.54 -168.589)" fill="#faeabb" fill-rule="evenodd"/>
      </g>
      <g id="Group_376" data-name="Group 376" transform="translate(33.978)">
        <path id="Path_2267" data-name="Path 2267" d="M216.03,171.165a3.2,3.2,0,1,1-3.193-3.39A3.3,3.3,0,0,1,216.03,171.165Z" transform="translate(-209.643 -167.775)" fill="#ffd78f" fill-rule="evenodd"/>
        <path id="Path_2268" data-name="Path 2268" d="M216.559,172.684a3.2,3.2,0,1,1-3.193-3.389A3.3,3.3,0,0,1,216.559,172.684Z" transform="translate(-209.926 -168.589)" fill="#faeabb" fill-rule="evenodd"/>
      </g>
    </g>
  </g>
</svg>
