<svg xmlns="http://www.w3.org/2000/svg" width="21.445" height="36.6" viewBox="0 0 21.445 36.6">
  <g id="mouse_7_" data-name="mouse (7)" transform="translate(-74.417 6.78)">
    <g id="Group_835" data-name="Group 835" transform="translate(74.667)">
      <path id="Path_3839" data-name="Path 3839" d="M87.6,0H82.676a8.018,8.018,0,0,0-8.009,8.009V19.1a10.473,10.473,0,1,0,20.945,0V8.009A8.018,8.018,0,0,0,87.6,0ZM85.14,6.928c.483,0,.73.276.73.616v3.7c0,.34-.214.616-.73.616s-.777-.276-.777-.616v-3.7C84.363,7.2,84.657,6.928,85.14,6.928ZM94.38,19.1a9.241,9.241,0,0,1-18.481,0V8.009a6.784,6.784,0,0,1,6.776-6.776h1.848V5.81a2,2,0,0,0-1.393,1.735v3.7a2,2,0,0,0,2.009,1.848A1.951,1.951,0,0,0,87.1,11.241v-3.7A1.953,1.953,0,0,0,85.756,5.81V1.232H87.6A6.784,6.784,0,0,1,94.38,8.009Z" transform="translate(-74.667)" fill="#cacacd" stroke="#cacacd" stroke-width="0.5"/>
      <line id="Line_20" data-name="Line 20" y1="6" transform="translate(10.5 -5.93)" fill="none" stroke="#cacacd" stroke-linecap="round" stroke-width="1.7"/>
    </g>
  </g>
</svg>
