<svg xmlns="http://www.w3.org/2000/svg" width="1674.08" height="396.487" viewBox="0 0 1674.08 396.487">
  <path id="Path_7716" data-name="Path 7716" d="M4894.871,1917.611s-191.636-253.551-572.785-85.218-581.254-7.553-807.935,106.012-222.985,294.231-108.323,211.978,286.448-199.683,659.454-22.468,432-318.21,770.292-117.411S4894.871,1917.611,4894.871,1917.611Z" transform="translate(-3328.923 -1774.692)" fill="#f5f6f7"/>
</svg>
