<svg xmlns="http://www.w3.org/2000/svg" width="300.944" height="280.226" viewBox="0 0 300.944 280.226">
  <g id="Group_1865" data-name="Group 1865" transform="translate(-1042.584 -426.823)">
    <path id="Path_2820" data-name="Path 2820" d="M776.972,96.628c7.331,5.354,20.515,16.865,18.792,28.821-.585,4.062-3.572,4.7-6.769,5.084a59.237,59.237,0,0,1-22.925-2.249c-30.816-8.692-58.377-33.753-82.286-56.673-14.451-13.854-28.239-28.586-41.9-43.445C631.124,16.471,617.3,4.232,615.6-13.846c-.534-.6-1.078-1.2-1.607-1.807-.255-.3.123-.745.389-.465.388.41.783.8,1.172,1.211a1.3,1.3,0,0,1,2.6.23c.071.946.184,1.874.325,2.79.529.537,1.066,1.058,1.6,1.589A525.9,525.9,0,0,1,758.463,29.329c4.921,2.182,17.923,5.423,18.484,13.16.517,7.121-8.654,6.344-12.395,6.374-11.574.1-22.977-3.349-34.049-6.862-11.355-3.6-22.566-7.776-33.66-12.318-23.7-9.7-46.764-21.14-69.656-33.076,20.529,19.266,43.062,35.284,66.487,49.713C721.187,63.264,750.607,77.371,776.972,96.628Zm-36.759-54.4A113.089,113.089,0,0,0,755.242,45.5c2.694.368,16.861,1.716,18.785-2.059.8-3.749-6.812-6.819-7.632-7.194q-3.748-1.717-7.514-3.375-7.147-3.141-14.367-6.065A536.073,536.073,0,0,0,686.952,7.209a510.389,510.389,0,0,0-62.5-13.218q.58.556,1.161,1.11C663.2,12.542,700.7,31.216,740.213,42.227ZM622.594-6.277c-.961-.137-1.92-.282-2.882-.414C623.851,6.616,635.051,16.592,643.7,26c10.66,11.6,21.395,23.112,32.462,34.2,22.421,22.454,46.812,44.983,74.266,58.776a90.426,90.426,0,0,0,20.5,7.651c5.376,1.217,25.945,5.812,22.016-7.521-4.408-14.962-19.222-22.793-30.439-29.774-24.523-15.265-49.756-28.973-74.208-44.4C665.085,30.294,642.309,14.1,622.594-6.277Z" transform="matrix(0.309, -0.951, 0.951, 0.309, 944.934, 1250.477)" fill="#f0f0f0"/>
    <g id="Group_1271" data-name="Group 1271" transform="matrix(-0.454, -0.891, 0.891, -0.454, 1106.248, 677.992)">
      <path id="Path_2817" data-name="Path 2817" d="M95.878,117.565c.473.8.943,1.624,1.39,2.443.245.413.49.827.714,1.236a547.767,547.767,0,0,1,33.227,69.8c2.113,5.366,4.169,10.787,6.03,16.276l1.044,3.2c.457,1.382.893,2.759,1.281,4.149.268.823.513,1.641.732,2.476,4.6,16.14,6.765,32.727,2.847,49.606a2.08,2.08,0,0,1-2.432,1.552c-7.508-.878-12.756-6.894-17.147-13.125a.022.022,0,0,1-.017-.026c-.276-.375-.53-.747-.8-1.143-1.211-1.729-2.353-3.465-3.456-5.08A200.3,200.3,0,0,1,103.4,220.98a344.792,344.792,0,0,1-14.033-34.989c-.213-.564-.4-1.124-.567-1.7-.663-1.877-1.3-3.749-1.9-5.632a2.157,2.157,0,0,1-.167-.465c-2.276-6.861-4.43-13.764-6.584-20.667q-2.142-6.911-4.527-13.629c-.178-.512-.357-1.022-.558-1.54C66.014,117.146,54.408,93.7,40.92,70.045c5.39,16.427,13.7,28.985,16.975,45.437,1.2,6.06,2.143,12.224,2.759,18.471.106.832.188,1.681.248,2.527.243,2.861.437,5.735.541,8.612.008.675.032,1.377.039,2.053q.157,6.133-.171,12.228a134.133,134.133,0,0,1-3.1,22.43c-.794,3.485-3.1,18.858-8.024,18.081-8.008-1.259-13.122-10.007-16.375-16.615a74.942,74.942,0,0,1-2.953-6.945c-.171-.442-.337-.906-.488-1.344-1.05-2.862-1.962-5.737-2.871-8.634-.223-.61-.4-1.213-.608-1.819-.378-1.23-.784-2.443-1.189-3.656a399.5,399.5,0,0,1-10.868-39.949c-.163-.688-.3-1.37-.466-2.058-.553-2.571-1.08-5.16-1.586-7.743-.164-.777-.312-1.529-.455-2.3-.417-2.069-.809-4.156-1.179-6.238C6.375,76.16,5.7,51.232,3.961,23.888c-.232-3.713,2-22.373,3.128-21.324q11.026,10.3,21.255,21.448C28.983,23.659,85.233,99.008,95.878,117.565Z" transform="translate(0 0)" fill="#00b59c"/>
      <path id="Path_2818" data-name="Path 2818" d="M21.012,51.745C13.684,34.44,9.358,27.746,3.278,10.38c.143,3.716.35,7.446.583,11.16C8.63,33.268,10.576,34.38,15.43,45.521c7,15.951,13.39,32.016,18.056,48.663C26.3,94.973,19.1,96.973,11.93,98.64c.143.773.291,1.525.455,2.3C19.7,99.734,27.218,98.254,33.7,95.333c.026-.017.035-.059.083-.071.449,1.626.891,3.275,1.314,4.918-4.639,1.982-8.851,4.778-13.7,6.378-2.378.8-5,1.273-7.433,2.126.163.688.3,1.37.466,2.058,7.358-1.9,14.981-4.476,21.046-8.949,1.185,4.891,2.254,9.8,3.076,14.813,1.866,11.242,3.044,22.556,4.427,33.848-5.474,1.191-11.042,2.406-16.491,3.893.2.606.385,1.209.608,1.819,5.374-1.347,10.723-2.991,16.047-4.418.282,2.175.543,4.343.824,6.518-4.964,1.528-9.393,4.186-14,6.534.151.438.318.9.488,1.344,4.658-1.663,9.052-4.06,13.838-5.492A233.767,233.767,0,0,0,49.2,186.5c.143.571.975.261.874-.3-3.782-20.137-4.967-40.641-7.7-60.927,2.624,2.245,5.8,3.914,8.708,5.7q4.942,3.083,10.012,5.993c-.008-.676-.031-1.378-.039-2.053-3.086-1.785-6.149-3.565-9.2-5.409-3.19-1.92-6.241-4.259-9.674-5.694-.273-2.015-.567-4.035-.887-6.038,6.1,3.306,12.757,5.772,19.22,8.529-.06-.845-.142-1.695-.248-2.527-6.16-2.915-12.669-5.661-19.1-6.818-.329-2.163-.685-4.308-1.089-6.442C36.292,90.134,29.085,70.765,21.012,51.745Z" transform="translate(0.394 10.178)" fill="#99e1d7"/>
      <path id="Path_2819" data-name="Path 2819" d="M4.731,16.133c19.553,27,35.143,45.158,53.945,72.712q8.872,13.02,17.167,26.316a.43.43,0,0,0,.243.525.206.206,0,0,1,.1.046c2.847,4.585,5.6,9.193,8.319,13.84a62.271,62.271,0,0,1-6.992,8.357,11.583,11.583,0,0,0-2.056,3.094,4.15,4.15,0,0,1-.492.7c.2.517.379,1.028.558,1.54a55.028,55.028,0,0,1,3.648-4.606c2.5-2.478,4.7-4.889,5.937-8.051,5.745,9.855,11.242,19.812,16.366,29.934-4.2,4.349-7.725,9.431-11.727,13.914-.986,1.106-2.059,2.1-3.112,3.106a2.154,2.154,0,0,0,.167.465c2.461-2.4,5.211-4.573,7.457-7.109A74.717,74.717,0,0,0,101.8,161.2c.764,1.517,1.481,3.047,2.224,4.56-4.4,3.54-7.357,8.478-10.866,12.867-1.374,1.74-2.926,3.373-4.46,5.033.164.575.354,1.134.567,1.7a59.894,59.894,0,0,0,5.929-6.19,127.312,127.312,0,0,1,9.725-11.571,439.555,439.555,0,0,1,28.255,73.188c-3.933,3.666-7.231,8.214-10.534,12.583.272.4.526.768.8,1.143a108.7,108.7,0,0,0,10.4-11.286c2.155,7.914,4.136,15.9,5.8,24,.091.4.747.277.7-.137a286.673,286.673,0,0,0-13.424-56.2,51.846,51.846,0,0,0,7.333,3.288c1.915.784,3.9,1.65,5.93,2.325-.219-.835-.465-1.653-.733-2.476-1.277-.419-2.537-.81-3.788-1.244-2.96-1.038-6.1-2.587-9.26-3.31-.641-1.872-1.324-3.754-2.012-5.614,4.54,1.906,9.126,4.112,13.78,6.02l-1.044-3.2c-4.378-1.33-8.8-2.445-13.059-3.7C112.99,173.044,97.782,144.467,81,117.316a78.439,78.439,0,0,0,16.163,2.056c-.448-.819-.917-1.642-1.39-2.443-2.78-.324-5.544-.622-8.3-.963-2.663-.343-5.332-.866-8-1.1q-4.495-7.23-9.132-14.335C51.976,72.354,31.938,45.312,12.078,18.175c-3.535-4.828-4.745-6.189-7.535-9.724C4.465,10.405,4.616,13.411,4.731,16.133Z" transform="translate(0.103 0.636)" fill="#99e1d7"/>
    </g>
  </g>
</svg>
